HW8
…
# A tibble: 2 × 4
  .metric .estimator .estimate .config             
  <chr>   <chr>          <dbl> <chr>               
1 rmse    standard    2911.    Preprocessor1_Model1
2 rsq     standard       0.919 Preprocessor1_Model1

Obtain the final model (fit on the entire training set) coefficient table

final_coefficients <- final_fit |> 
  extract_fit_parsnip() |> 
  tidy()

final_coefficients

# A tibble: 29 × 5
   term                               estimate std.error statistic  p.value
   <chr>                                 <dbl>     <dbl>     <dbl>    <dbl>
 1 (Intercept)                          20261.     1602.    12.6   2.81e-28
 2 season_Spring                        -2127.      264.    -8.06  4.00e-14
 3 season_Summer                         6316.      973.     6.49  5.07e-10
 4 season_Winter                        -4972.     1011.    -4.92  1.65e- 6
 5 holiday_No.Holiday                     932.      217.     4.30  2.48e- 5
 6 day_type_weekend                     -1106.      180.    -6.14  3.49e- 9
 7 season_Spring_x_holiday_No.Holiday     156.      317.     0.494 6.22e- 1
 8 holiday_No.Holiday_x_season_Summer    -239.      246.    -0.971 3.33e- 1
 9 holiday_No.Holiday_x_season_Winter    -361.      207.    -1.74  8.30e- 2
10 season_Spring_x_avg_temperature       1924.      492.     3.91  1.21e- 4
# ℹ 19 more rows
